8342 65479 340
22091 54131 340
68557 48266 340
16238 60325 340
36479 19821 324
80935 28077 351
12182 10480 268
99937 95135 328
28303 27977 228
99438 93273 328
41554 86508 351
67509 64018 299
67135 67201 237
66609 90105 351
86700 23994 351
31657 95807 351
52845 28767 340
16727 83122 351
26869 94022 351
63043 79610 351
67235 80127 351
20642 27561 308
17924 83308 351
37023 68226 340
13723 91653 351
98844 61664 351
50055 70863 340
7224 11333 268
16958 40109 324
94732 6688 351
97085 89091 333
67547 97597 351
87204 82035 333
31177 39265 324
45950 5794 324
42704 23473 324
44014 3326 324
93754 92375 315
41033 18352 324
93425 54933 351
34409 239 311
25325 78183 351
30957 96070 351
11169 11374 206
63009 75901 330
43181 63299 340
66887 98473 351
43343 55425 340
98790 92345 328
90058 42673 351
91079 70874 351
53666 19590 340
25619 89326 351
22189 59296 340
65293 86702 351
26062 47626 324
28222 70882 340
90337 98305 333
56227 32274 340
83437 49612 351
18111 37345 324
99333 53773 351
62173 43692 340
8186 43218 324
84700 29228 351
80812 34872 351
2351 10205 262
89243 88173 315
27918 67458 340
84241 92517 333
32612 29946 285
74388 33108 340
19875 91309 351
39703 14436 324
9132 40221 324
58357 91726 351
59416 53906 322
45934 12336 324
91215 18160 351
53251 24971 340
48833 489 324
6358 59414 340
98886 45236 351
55568 39919 340
70318 63089 330
19492 61446 340
78459 65826 351
2003 72332 340
50844 81212 351
3569 19982 279
9723 85809 351
11102 8318 268
53504 80775 351
44331 12846 324
24392 17627 282
69833 12891 340
75923 95643 351
53753 95440 351
12175 56710 340
74017 52626 335
87154 53881 351
56829 25031 340
36131 42375 306
42906 78265 351
9017 7895 252
45145 3219 324
65149 76364 325
26826 45780 324
51535 17755 324
50174 84648 351
63356 70444 330
25540 96671 351
75569 60235 335
99434 80225 333
50129 96726 351
57678 2176 340
46473 36215 314
26862 15696 308
7426 71642 340
94902 65539 351
90810 77737 338
89446 34737 351
32777 99888 351
15065 34153 308
96708 7100 351
16563 79683 351
53919 3007 340
64124 35372 340
4880 6252 262
3807 36404 324
37821 84865 351
8436 77367 351
4121 72629 340
96939 20292 351
61401 90387 351
81017 59580 351
6176 95618 351
97259 53335 351
14301 47002 324
34127 69272 340
22143 79704 351
4989 38228 324
94107 38241 351
28736 79747 351
18634 48406 324
64216 71098 312
73138 83802 351
41148 50852 314
82708 51026 351
84447 56662 351
33709 86360 351
16546 99134 351
93865 93833 253
30336 20396 308
82595 5310 351
55897 79656 351
41782 49258 314
65118 79451 351
36659 42855 306
45494 32843 324
71672 23004 340
40994 47614 314
8810 27061 308
34885 37923 324
71647 44018 340
79605 4246 351
76 98366 351
91743 17489 351
1794 39350 324
35118 43599 324
18369 41688 324
42780 36485 306
45808 16654 324
66361 59342 335
42624 43031 257
55199 47410 340
38928 62345 340
25850 90192 351
97793 66030 351
58174 33739 340
92211 50165 351
3257 82605 351
16254 20624 279
37770 20662 324
23354 79673 351
97397 38905 351
94136 28304 351
28278 75775 340
36592 44871 306
29492 29320 272
9583 77294 351
45010 7263 324
82929 96233 333
14952 59996 340
54644 21984 340
27759 57567 340
1186 24365 282
81386 59863 351
18500 48755 324
88300 53037 351
