285576 795044 509
946362 250668 525
812729 235935 509
952500 452202 525
377332 919958 525
659236 863062 525
863481 699644 525
279241 804541 509
883374 345448 525
382506 569729 470
581164 976907 525
53521 956428 525
307999 69550 443
251924 512631 470
986563 755518 525
818408 971332 525
815747 323277 509
638708 668125 442
822784 907309 525
68871 291884 443
310446 396669 441
643540 623351 509
970274 192480 525
205209 932692 525
253041 345173 407
116862 220514 386
660706 622591 509
246761 787203 509
960183 484967 525
664999 357076 509
262503 13223 443
68820 255117 443
233261 959648 525
697680 842654 525
455284 355819 449
680913 230656 509
881714 526273 525
462331 422956 444
477753 551207 470
852341 103916 525
759956 264384 509
360380 392102 436
982915 339623 525
304938 285429 389
562403 616234 447
86712 941241 525
555311 51718 470
500171 747054 509
341895 592093 470
538139 161569 470
163728 854877 525
657842 626320 509
807848 964184 525
167210 261905 443
588447 626825 509
497974 542883 470
45701 186938 383
60534 787525 509
844209 774068 525
604482 223294 470
600692 118063 470
999334 379606 525
987625 984440 427
758347 787589 468
490652 18418 449
907179 804761 525
9745 229311 386
861808 944606 507
510756 969828 525
609108 74560 470
333152 267406 407
134319 896709 525
450563 786622 509
229278 612153 470
184759 452603 449
532567 137904 470
833292 2724 509
903785 409357 525
112428 839369 525
813975 826319 450
525715 427141 470
112370 154972 375
464308 799954 509
380336 336442 441
514732 682863 509
111324 262995 443
514254 355024 470
570193 620956 447
786202 29728 509
241896 305602 407
601079 888836 525
52595 679302 509
894464 547601 525
19200 47474 324
240889 18928 443
406355 503632 449
751504 758437 424
785267 755482 468
188521 327943 443
511885 734004 509
203546 231225 443
49721 929942 525
