9179 130299 354
6461 254323 443
143719 912815 525
662626 833990 504
20615 862292 525
531549 343925 470
814902 577542 509
675299 216032 509
908436 608401 525
783121 213956 509
714384 393226 509
531176 585820 452
675525 875318 525
409060 933841 525
844487 732433 525
427362 748957 509
516025 229554 470
282622 959179 525
682778 979508 525
79716 39475 351
159634 298247 443
941378 679511 525
646362 979369 525
390160 737628 509
782740 787338 375
532673 36293 470
705958 748319 424
697426 52031 509
558406 707306 509
197685 759247 509
480390 443233 444
259380 944616 525
850754 571823 525
464132 449420 444
30377 283946 443
767932 939258 525
191705 502861 449
650111 569110 509
105848 978157 525
279479 310007 389
383382 470815 449
799869 604720 509
896200 806520 525
378482 801681 509
867723 249733 525
63252 243360 443
138359 563561 470
186198 414355 449
950031 990458 458
313309 406893 441
801404 688633 504
573421 86174 470
287869 417806 449
607258 816490 509
907761 226122 525
391632 582154 470
136106 191873 383
48230 781541 509
429218 334622 449
384390 442118 449
925332 788566 525
620476 215778 470
296045 303199 371
251114 55767 443
480933 809226 509
125074 549907 470
150931 151442 264
304668 964357 525
116828 616875 470
312691 710750 509
708715 682320 504
428716 490960 444
663562 710767 504
889040 867235 445
11114 482309 449
320408 680090 509
210745 458308 449
865947 53838 525
580945 485632 470
54122 487354 449
916845 355059 525
742385 159432 509
650630 104925 509
555490 298282 470
610989 923208 525
812359 733499 468
652732 407897 509
199317 759392 509
518704 150979 470
237654 355961 441
703644 24908 509
96864 189257 383
45499 515952 470
427813 316678 449
810134 387323 509
917903 450450 525
382168 367375 423
553575 577986 421
327218 109552 443
558906 938797 525
707332 837249 468
855378 604995 525
556080 733513 509
857127 441203 525
923718 335191 525
260054 364558 441
501503 244168 449
810032 498582 509
381569 573252 470
946656 880809 507
154060 860776 525
666604 789873 504
992769 396480 525
299454 820021 509
706910 914867 525
189340 2368 383
898608 899880 370
972380 865152 507
746646 171089 509
101464 94186 341
886561 909215 445
185420 958944 525
651508 610535 509
485084 849882 525
381660 509013 449
294476 541054 470
251832 739855 509
560477 850916 525
346111 637184 509
694815 378960 509
520513 484857 470
869756 549349 525
946189 70666 525
548308 543219 452
519278 765221 509
618693 386997 470
804148 840894 525
441199 654047 509
251506 833975 509
181937 246041 443
37404 714883 509
583824 99737 470
930954 407799 525
492174 185733 449
519288 869015 525
572690 368517 470
978966 153066 525
513124 670955 509
479047 526548 470
479933 573353 470
756543 912079 525
606905 818101 509
810445 685931 504
351461 746844 509
844721 675380 525
913218 951710 507
184872 961815 525
80758 86277 320
369656 891196 525
140510 736820 509
28398 579365 470
437516 957549 525
420068 145179 449
290117 215398 443
977328 968386 458
348557 963904 525
170952 869039 525
843150 500405 525
800712 520695 509
814715 799776 406
161686 271374 443
172012 662843 509
435875 72344 449
278309 230124 443
865072 217632 525
109420 856605 525
579881 280404 470
408353 504601 449
891311 404457 525
102684 848182 525
601926 164670 470
427102 956439 525
567496 681013 509
61904 440785 449
257924 71691 443
435688 274678 449
485092 509561 426
738517 480867 509
283878 483196 449
588015 295883 470
574699 837699 509
158247 967962 525
522640 901435 525
253382 731626 509
265044 692349 509
937962 92872 525
644222 732855 504
453643 370373 449
709692 728831 411
425432 729985 509
