705517 909542 525
403340 920174 525
140843 950988 525
156614 451456 449
175364 519185 470
179 260781 443
375474 390810 436
299029 371980 441
119267 576692 470
439528 652779 509
715153 773065 468
813923 989419 525
719573 930481 525
746702 833565 468
732615 867810 525
250714 877053 525
934123 958594 507
500896 668734 509
635985 731668 504
711928 763586 424
185483 210326 373
647388 679459 442
744770 830138 468
794980 920506 525
2705 907114 525
883259 886707 370
405295 553071 470
43349 875423 525
538505 720804 509
493072 691214 509
215276 983003 525
778714 938428 525
848622 897363 445
628589 891182 525
968304 988302 458
911501 922455 432
290056 886290 525
452723 606009 470
481006 940120 525
54261 630044 509
138363 947902 525
499380 635235 509
486500 907811 525
208190 262813 443
261803 928488 525
461012 489229 444
107629 199090 383
856476 887431 445
376640 569119 470
973594 999985 440
814504 968384 525
261933 875697 525
920135 995172 507
620155 705999 509
611239 796014 509
987035 994922 396
406635 998213 525
614985 834722 509
847558 987291 507
445786 681156 509
658366 821136 504
986274 996741 396
841966 948062 507
287491 503119 449
60673 862158 525
227474 546065 470
534805 885313 525
434589 824281 509
437505 842697 525
305096 875739 525
265048 702185 509
951296 990317 458
440535 848166 525
540657 834583 509
643487 790373 504
595579 980762 525
74095 238658 443
302181 525614 470
630657 663244 429
774300 983736 525
306493 569950 470
127263 604305 470
502937 541978 470
422653 827345 509
706527 826788 468
485542 759783 509
494417 754452 509
727552 997308 525
374723 693837 509
131231 365953 443
529595 689010 509
6393 949343 525
820789 889840 525
602900 990336 525
470907 498738 426
353948 952128 525
764993 849927 525
376556 613841 470
227 310166 443
313079 736731 509
649677 736626 504
20592 488352 449
234500 646115 509
921812 945671 507
336052 494231 449
955998 960511 352
949725 950688 352
806137 884586 525
648268 882936 525
224853 949407 525
563117 632954 509
99915 888681 525
581358 696379 509
21102 561754 470
317768 992193 525
439344 663844 509
297977 567788 470
732457 783148 468
116574 565774 470
956816 995059 458
1648 962595 525
241503 898498 525
549329 592312 434
955423 981264 458
884752 918922 476
862883 934615 476
11228 138878 354
346480 500484 449
7180 135933 354
375146 851428 525
243009 971492 525
267378 573656 470
404799 534114 470
467317 487056 413
202040 980841 525
797891 821247 450
761378 971203 525
999851 999946 259
132885 177684 383
981669 987685 427
498081 644357 509
790149 907917 525
619608 790979 509
223465 415936 449
546962 984475 525
356990 964348 525
837305 881676 525
975375 997484 427
460376 514432 470
349305 630090 509